{
	"name": "NodeJS Container",
	"dockerComposeFile": [
		"../docker-compose.yml",
	],
	"service": "node",
	"workspaceFolder": "/usr/src/app",
	"extensions": [
		"dbaeumer.vscode-eslint"
	],
	"postStartCommand": "npm install"
}
